^C:\USERS\HOANG\DESKTOP\FLUTTER_APPLICATION_1\BUILD\WINDOWS\FLUTTER\FLUTTER_WRAPPER_PLUGIN.DIR\DEBUG\CORE_IMPLEMENTATIONS.OBJ|C:\USERS\HOANG\DESKTOP\FLUTTER_APPLICATION_1\BUILD\WINDOWS\FLUTTER\FLUTTER_WRAPPER_PLUGIN.DIR\DEBUG\PLUGIN_REGISTRAR.OBJ|C:\USERS\HOANG\DESKTOP\FLUTTER_APPLICATION_1\BUILD\WINDOWS\FLUTTER\FLUTTER_WRAPPER_PLUGIN.DIR\DEBUG\STANDARD_CODEC.OBJ
C:\USERS\HOANG\DESKTOP\FLUTTER_APPLICATION_1\BUILD\WINDOWS\FLUTTER\FLUTTER_WRAPPER_PLUGIN.DIR\DEBUG\CORE_IMPLEMENTATIONS.OBJ
C:\USERS\HOANG\DESKTOP\FLUTTER_APPLICATION_1\BUILD\WINDOWS\FLUTTER\FLUTTER_WRAPPER_PLUGIN.DIR\DEBUG\STANDARD_CODEC.OBJ
C:\USERS\HOANG\DESKTOP\FLUTTER_APPLICATION_1\BUILD\WINDOWS\FLUTTER\FLUTTER_WRAPPER_PLUGIN.DIR\DEBUG\PLUGIN_REGISTRAR.OBJ
C:\WINDOWS\GLOBALIZATION\SORTING\SORTDEFAULT.NLS
