^C:\USERS\HOANG\DESKTOP\FLUTTER_APPLICATION_1\BUILD\WINDOWS\CMAKEFILES\3.26.0-MSVC3\COMPILERIDCXX\CMAKECXXCOMPILERID.CPP
C:\WINDOWS\GLOBALIZATION\SORTING\SORTDEFAULT.NLS
C:\PROGRAM FILES\MICROSOFT VISUAL STUDIO\2022\COMMUNITY\VC\TOOLS\MSVC\14.36.32532\BIN\HOSTX64\X64\1033\CLUI.DLL
